<?xml version="1.0" encoding="utf-8"?>
<!-- Generator: Adobe Illustrator 24.1.3, SVG Export Plug-In . SVG Version: 6.00 Build 0)  -->
<svg version="1.1" id="Layer_1" xmlns="http://www.w3.org/2000/svg" xmlns:xlink="http://www.w3.org/1999/xlink" x="0px" y="0px"
	viewBox="0 0 175.83 148.78" style="enable-background:new 0 0 175.83 148.78;" xml:space="preserve">
<style type="text/css">
	.dog2-angry-st0{fill:#FFDA95;}
	.dog2-angry-st1{fill:#F6A347;}
	.dog2-angry-st2{fill:#FFFFFF;}
	.dog2-angry-st3{fill:none;stroke:#5F342A;stroke-width:4.3643;stroke-linecap:round;stroke-linejoin:round;stroke-miterlimit:10;}
	.dog2-angry-st4{opacity:0.11;fill:#1D314F;}
	.dog2-angry-st5{fill:#5F342A;}
	.dog2-angry-st6{fill:none;stroke:#5F342A;stroke-width:2.9949;stroke-linecap:round;stroke-linejoin:round;stroke-miterlimit:10;}
	.dog2-angry-st7{fill:#FCE4E6;}
	.furry-color{fill:#F6A347;}
</style>
<g>
	<g>
		<g>
			<g>
				<g>
					<g>
						<g>
							<g>
								<g>
									<path class="dog2-angry-st1 furry-color" d="M103.1,146.59l-23.3,0c-29.24,0.01-52.95-23.69-52.95-52.93v0c-0.01-29.73,24.09-53.83,53.81-53.83
										l23.3-0.01c29.24-0.01,52.95,23.69,52.95,52.93v0C156.92,122.48,132.83,146.58,103.1,146.59z"/>
									<path class="dog2-angry-st2" d="M114.53,91.09c0-5.58-2.61-10.58-6.73-13.97c-3.58-2.94-5.79-7.32-5.79-12.07V39.83l-14.08,0v25.22
										c0,4.74-2.21,9.12-5.79,12.07c-4.12,3.39-6.73,8.39-6.73,13.97c0,10.22,8.75,18.51,19.55,18.51
										C105.78,109.6,114.53,101.31,114.53,91.09z"/>
									<path class="dog2-angry-st3" d="M103.1,146.59l-23.3,0c-29.24,0.01-52.95-23.69-52.95-52.93v0c-0.01-29.73,24.09-53.83,53.81-53.83
										l23.3-0.01c29.24-0.01,52.95,23.69,52.95,52.93v0C156.92,122.48,132.83,146.58,103.1,146.59z"/>
									<path class="dog2-angry-st4" d="M92.84,136.65c30.42-0.01,48.51-8.4,59.21-18.57c-3.2,6.89-7.66,13.01-13.07,18.03
										c-8.17,6.54-18.53,10.47-29.81,10.47l-34.55,0.01c-12.08,0-23.11-4.49-31.52-11.89c-6.45-6.7-11.27-15.16-13.78-24.66
										c0-0.1,0-0.19,0-0.28C36.53,121.61,53.45,136.66,92.84,136.65z"/>
								</g>
								<g>
									<path class="dog2-angry-st5" d="M69.88,74.42c-0.37,0.42-0.68,0.89-0.93,1.42c-1.36,2.96-0.07,6.46,2.88,7.82
										c2.96,1.36,6.46,0.07,7.82-2.88c0.29-0.64,0.46-1.3,0.51-1.96L69.88,74.42z"/>
									<path class="dog2-angry-st5" d="M107.84,78.33c0.05,0.21,0.11,0.41,0.19,0.62c1.12,3.06,4.5,4.63,7.56,3.52
										c3.06-1.12,4.63-4.5,3.52-7.56c-0.11-0.31-0.26-0.6-0.41-0.88L107.84,78.33z"/>
									<path class="dog2-angry-st5" d="M103.67,79.62c-0.14,5-4.31,8.95-9.31,8.81c-5-0.14-8.95-4.31-8.81-9.31
										C85.69,74.11,103.81,74.62,103.67,79.62z"/>
								</g>
							</g>
						</g>
						<g>
							<path class="dog2-angry-st1 furry-color" d="M110.85,44.66c0,0,7.56-47.47,21.86-42.05c14.3,5.43,27.58,39.87,8.81,57.64"/>
							<path class="dog2-angry-st3" d="M110.85,44.66c0,0,7.56-47.47,21.86-42.05c14.3,5.43,25.51,39.68,8.52,56.28"/>
							<path class="dog2-angry-st2" d="M120.11,44.95c-0.84-0.24,5.28-30.62,12.03-29.25c6.75,1.37,15.25,20.5,3.52,37.18
								C135.65,52.88,125.97,46.59,120.11,44.95z"/>
						</g>
						<g>
							<path class="dog2-angry-st1 furry-color" d="M71,44.66c0,0-7.56-47.47-21.86-42.05s-27.58,39.87-8.81,57.64"/>
							<path class="dog2-angry-st3" d="M71,44.66c0,0-7.56-47.47-21.86-42.05S23.63,42.3,40.62,58.89"/>
							<path class="dog2-angry-st2" d="M61.74,44.95c0.84-0.24-5.28-30.62-12.03-29.25c-6.75,1.37-15.25,20.5-3.52,37.18
								C46.19,52.88,55.87,46.59,61.74,44.95z"/>
						</g>
					</g>
					<g>
						<circle class="dog2-angry-st7" cx="50.79" cy="96.33" r="11.15"/>
						<circle class="dog2-angry-st7" cx="132.91" cy="96.33" r="11.15"/>
					</g>
				</g>
				<line class="dog2-angry-st6" x1="95.33" y1="91.36" x2="95.33" y2="85.06"/>
			</g>
		</g>
		<line class="dog2-angry-st6" x1="67.88" y1="73.32" x2="80.96" y2="78.92"/>
		<line class="dog2-angry-st6" x1="107.5" y1="78.23" x2="120.72" y2="72.98"/>
	</g>
	<path class="dog2-angry-st6" d="M87.55,95.82c0,0,7.04-9.19,16.23,0"/>
	<path class="dog2-angry-st6" d="M109.25,100.71c-3.02,0-5.48-2.37-5.48-5.3c0-2.93,2.45-5.3,5.48-5.3"/>
	<path class="dog2-angry-st6" d="M81.88,100.71c3.02,0,5.48-2.37,5.48-5.3c0-2.93-2.45-5.3-5.48-5.3"/>
	<g>
		<g>
			<path class="dog2-angry-st2" d="M21.51,75.29l-4.87-1.73c-1.03,4.12-5.2,6.62-9.32,5.59c-4.12-1.03-6.62-5.2-5.59-9.32
				c0.34-1.35,1.02-2.52,1.92-3.45c-1.37-1.49-1.98-3.62-1.46-5.73c0.82-3.28,4.09-5.28,7.37-4.57c0-0.63,0.06-1.27,0.22-1.91
				c1.03-4.12,5.2-6.62,9.32-5.59c4.12,1.03,6.62,5.2,5.59,9.32l4.75,2.58"/>
		</g>
		<g>
			<path class="dog2-angry-st6" d="M21.51,75.29l-4.87-1.73c-1.03,4.12-5.2,6.62-9.32,5.59c-4.12-1.03-6.62-5.2-5.59-9.32
				c0.34-1.35,1.02-2.52,1.92-3.45c-1.37-1.49-1.98-3.62-1.46-5.73c0.82-3.28,4.09-5.28,7.37-4.57c0-0.63,0.06-1.27,0.22-1.91
				c1.03-4.12,5.2-6.62,9.32-5.59c4.12,1.03,6.62,5.2,5.59,9.32l4.75,2.58"/>
		</g>
		<line class="dog2-angry-st6" x1="20.33" y1="65.31" x2="26.05" y2="67.81"/>
	</g>
	<g>
		<g>
			<path class="dog2-angry-st2" d="M150.85,58.27l3.38-1.66c-0.89-3.57,1.28-7.18,4.84-8.07c3.57-0.89,7.18,1.28,8.07,4.84
				c0.14,0.55,0.19,1.11,0.19,1.65c2.84-0.62,5.68,1.13,6.39,3.97c0.46,1.83-0.08,3.67-1.26,4.96c0.78,0.81,1.37,1.83,1.66,2.99
				c0.89,3.57-1.28,7.18-4.84,8.07c-3.57,0.89-7.18-1.28-8.07-4.84l-4.05,1.72"/>
		</g>
		<g>
			<path class="dog2-angry-st6" d="M150.85,58.27l3.38-1.66c-0.89-3.57,1.28-7.18,4.84-8.07c3.57-0.89,7.18,1.28,8.07,4.84
				c0.14,0.55,0.19,1.11,0.19,1.65c2.84-0.62,5.68,1.13,6.39,3.97c0.46,1.83-0.08,3.67-1.26,4.96c0.78,0.81,1.37,1.83,1.66,2.99
				c0.89,3.57-1.28,7.18-4.84,8.07c-3.57,0.89-7.18-1.28-8.07-4.84l-4.05,1.72"/>
		</g>
		<line class="dog2-angry-st6" x1="152.47" y1="63.99" x2="159.51" y2="61.35"/>
	</g>
</g>
</svg>
